# vtk DataFile Version 4.2
vtk output
ASCII
DATASET POLYDATA
POINTS 82 float
0 0 1 0 0 -1 0.34202 0 0.939693 
0.642788 0 0.766044 0.866025 0 0.5 0.984808 0 0.173648 
0.984808 0 -0.173648 0.866025 0 -0.5 0.642788 0 -0.766044 
0.34202 0 -0.939693 0.2767 0.201034 0.939693 0.520026 0.377821 0.766044 
0.700629 0.509037 0.5 0.796726 0.578855 0.173648 0.796726 0.578855 -0.173648 
0.700629 0.509037 -0.5 0.520026 0.377821 -0.766044 0.2767 0.201034 -0.939693 
0.10569 0.32528 0.939693 0.198632 0.611327 0.766044 0.267617 0.823639 0.5 
0.304322 0.936608 0.173648 0.304322 0.936608 -0.173648 0.267617 0.823639 -0.5 
0.198632 0.611327 -0.766044 0.10569 0.32528 -0.939693 -0.10569 0.32528 0.939693 
-0.198632 0.611327 0.766044 -0.267617 0.823639 0.5 -0.304322 0.936608 0.173648 
-0.304322 0.936608 -0.173648 -0.267617 0.823639 -0.5 -0.198632 0.611327 -0.766044 
-0.10569 0.32528 -0.939693 -0.2767 0.201034 0.939693 -0.520026 0.377821 0.766044 
-0.700629 0.509037 0.5 -0.796726 0.578855 0.173648 -0.796726 0.578855 -0.173648 
-0.700629 0.509037 -0.5 -0.520026 0.377821 -0.766044 -0.2767 0.201034 -0.939693 
-0.34202 4.18854e-17 0.939693 -0.642788 7.87188e-17 0.766044 -0.866025 1.06058e-16 0.5 
-0.984808 1.20604e-16 0.173648 -0.984808 1.20604e-16 -0.173648 -0.866025 1.06058e-16 -0.5 
-0.642788 7.87188e-17 -0.766044 -0.34202 4.18854e-17 -0.939693 -0.2767 -0.201034 0.939693 
-0.520026 -0.377821 0.766044 -0.700629 -0.509037 0.5 -0.796726 -0.578855 0.173648 
-0.796726 -0.578855 -0.173648 -0.700629 -0.509037 -0.5 -0.520026 -0.377821 -0.766044 
-0.2767 -0.201034 -0.939693 -0.10569 -0.32528 0.939693 -0.198632 -0.611327 0.766044 
-0.267617 -0.823639 0.5 -0.304322 -0.936608 0.173648 -0.304322 -0.936608 -0.173648 
-0.267617 -0.823639 -0.5 -0.198632 -0.611327 -0.766044 -0.10569 -0.32528 -0.939693 
0.10569 -0.32528 0.939693 0.198632 -0.611327 0.766044 0.267617 -0.823639 0.5 
0.304322 -0.936608 0.173648 0.304322 -0.936608 -0.173648 0.267617 -0.823639 -0.5 
0.198632 -0.611327 -0.766044 0.10569 -0.32528 -0.939693 0.2767 -0.201034 0.939693 
0.520026 -0.377821 0.766044 0.700629 -0.509037 0.5 0.796726 -0.578855 0.173648 
0.796726 -0.578855 -0.173648 0.700629 -0.509037 -0.5 0.520026 -0.377821 -0.766044 
0.2767 -0.201034 -0.939693 
POLYGONS 160 640
3 2 10 0 
3 10 18 0 
3 18 26 0 
3 26 34 0 
3 34 42 0 
3 42 50 0 
3 50 58 0 
3 58 66 0 
3 66 74 0 
3 74 2 0 
3 9 1 17 
3 17 1 25 
3 25 1 33 
3 33 1 41 
3 41 1 49 
3 49 1 57 
3 57 1 65 
3 65 1 73 
3 73 1 81 
3 81 1 9 
3 2 3 11 
3 2 11 10 
3 3 4 12 
3 3 12 11 
3 4 5 13 
3 4 13 12 
3 5 6 14 
3 5 14 13 
3 6 7 15 
3 6 15 14 
3 7 8 16 
3 7 16 15 
3 8 9 17 
3 8 17 16 
3 10 11 19 
3 10 19 18 
3 11 12 20 
3 11 20 19 
3 12 13 21 
3 12 21 20 
3 13 14 22 
3 13 22 21 
3 14 15 23 
3 14 23 22 
3 15 16 24 
3 15 24 23 
3 16 17 25 
3 16 25 24 
3 18 19 27 
3 18 27 26 
3 19 20 28 
3 19 28 27 
3 20 21 29 
3 20 29 28 
3 21 22 30 
3 21 30 29 
3 22 23 31 
3 22 31 30 
3 23 24 32 
3 23 32 31 
3 24 25 33 
3 24 33 32 
3 26 27 35 
3 26 35 34 
3 27 28 36 
3 27 36 35 
3 28 29 37 
3 28 37 36 
3 29 30 38 
3 29 38 37 
3 30 31 39 
3 30 39 38 
3 31 32 40 
3 31 40 39 
3 32 33 41 
3 32 41 40 
3 34 35 43 
3 34 43 42 
3 35 36 44 
3 35 44 43 
3 36 37 45 
3 36 45 44 
3 37 38 46 
3 37 46 45 
3 38 39 47 
3 38 47 46 
3 39 40 48 
3 39 48 47 
3 40 41 49 
3 40 49 48 
3 42 43 51 
3 42 51 50 
3 43 44 52 
3 43 52 51 
3 44 45 53 
3 44 53 52 
3 45 46 54 
3 45 54 53 
3 46 47 55 
3 46 55 54 
3 47 48 56 
3 47 56 55 
3 48 49 57 
3 48 57 56 
3 50 51 59 
3 50 59 58 
3 51 52 60 
3 51 60 59 
3 52 53 61 
3 52 61 60 
3 53 54 62 
3 53 62 61 
3 54 55 63 
3 54 63 62 
3 55 56 64 
3 55 64 63 
3 56 57 65 
3 56 65 64 
3 58 59 67 
3 58 67 66 
3 59 60 68 
3 59 68 67 
3 60 61 69 
3 60 69 68 
3 61 62 70 
3 61 70 69 
3 62 63 71 
3 62 71 70 
3 63 64 72 
3 63 72 71 
3 64 65 73 
3 64 73 72 
3 66 67 75 
3 66 75 74 
3 67 68 76 
3 67 76 75 
3 68 69 77 
3 68 77 76 
3 69 70 78 
3 69 78 77 
3 70 71 79 
3 70 79 78 
3 71 72 80 
3 71 80 79 
3 72 73 81 
3 72 81 80 
3 74 75 3 
3 74 3 2 
3 75 76 4 
3 75 4 3 
3 76 77 5 
3 76 5 4 
3 77 78 6 
3 77 6 5 
3 78 79 7 
3 78 7 6 
3 79 80 8 
3 79 8 7 
3 80 81 9 
3 80 9 8 

POINT_DATA 82
NORMALS Normals float
0 0 1 0 0 -1 0.34202 0 0.939693 
0.642788 0 0.766044 0.866025 0 0.5 0.984808 0 0.173648 
0.984808 0 -0.173648 0.866025 0 -0.5 0.642788 0 -0.766044 
0.34202 0 -0.939693 0.2767 0.201034 0.939693 0.520026 0.377821 0.766044 
0.700629 0.509037 0.5 0.796726 0.578855 0.173648 0.796726 0.578855 -0.173648 
0.700629 0.509037 -0.5 0.520026 0.377821 -0.766044 0.2767 0.201034 -0.939693 
0.10569 0.32528 0.939693 0.198632 0.611327 0.766044 0.267617 0.823639 0.5 
0.304322 0.936608 0.173648 0.304322 0.936608 -0.173648 0.267617 0.823639 -0.5 
0.198632 0.611327 -0.766044 0.10569 0.32528 -0.939693 -0.10569 0.32528 0.939693 
-0.198632 0.611327 0.766044 -0.267617 0.823639 0.5 -0.304322 0.936608 0.173648 
-0.304322 0.936608 -0.173648 -0.267617 0.823639 -0.5 -0.198632 0.611327 -0.766044 
-0.10569 0.32528 -0.939693 -0.2767 0.201034 0.939693 -0.520026 0.377821 0.766044 
-0.700629 0.509037 0.5 -0.796726 0.578855 0.173648 -0.796726 0.578855 -0.173648 
-0.700629 0.509037 -0.5 -0.520026 0.377821 -0.766044 -0.2767 0.201034 -0.939693 
-0.34202 4.18854e-17 0.939693 -0.642788 7.87188e-17 0.766044 -0.866025 1.06058e-16 0.5 
-0.984808 1.20604e-16 0.173648 -0.984808 1.20604e-16 -0.173648 -0.866025 1.06058e-16 -0.5 
-0.642788 7.87188e-17 -0.766044 -0.34202 4.18854e-17 -0.939693 -0.2767 -0.201034 0.939693 
-0.520026 -0.377821 0.766044 -0.700629 -0.509037 0.5 -0.796726 -0.578855 0.173648 
-0.796726 -0.578855 -0.173648 -0.700629 -0.509037 -0.5 -0.520026 -0.377821 -0.766044 
-0.2767 -0.201034 -0.939693 -0.10569 -0.32528 0.939693 -0.198632 -0.611327 0.766044 
-0.267617 -0.823639 0.5 -0.304322 -0.936608 0.173648 -0.304322 -0.936608 -0.173648 
-0.267617 -0.823639 -0.5 -0.198632 -0.611327 -0.766044 -0.10569 -0.32528 -0.939693 
0.10569 -0.32528 0.939693 0.198632 -0.611327 0.766044 0.267617 -0.823639 0.5 
0.304322 -0.936608 0.173648 0.304322 -0.936608 -0.173648 0.267617 -0.823639 -0.5 
0.198632 -0.611327 -0.766044 0.10569 -0.32528 -0.939693 0.2767 -0.201034 0.939693 
0.520026 -0.377821 0.766044 0.700629 -0.509037 0.5 0.796726 -0.578855 0.173648 
0.796726 -0.578855 -0.173648 0.700629 -0.509037 -0.5 0.520026 -0.377821 -0.766044 
0.2767 -0.201034 -0.939693 
